<svg width="12" height="12" viewBox="0 0 12 12" fill="none" xmlns="http://www.w3.org/2000/svg">
<path d="M0 6.66678H1.35159C1.51411 7.77681 2.07325 8.79158 2.92671 9.52543C3.78016 10.2593 4.87089 10.6631 5.99933 10.6631C7.12777 10.6631 8.21849 10.2593 9.07195 9.52543C9.92541 8.79158 10.4845 7.77681 10.6471 6.66678H11.9993C11.834 8.13359 11.1306 9.48839 10.0238 10.4722C8.91692 11.4561 7.48416 12 5.99933 12C4.5145 12 3.08174 11.4561 1.97488 10.4722C0.868028 9.48839 0.165373 8.13359 0 6.66678ZM0 5.33322C0.165373 3.86641 0.868698 2.51161 1.97556 1.52776C3.08241 0.543903 4.51517 0 6 0C7.48483 0 8.91759 0.543903 10.0244 1.52776C11.1313 2.51161 11.8346 3.86641 12 5.33322H10.6477C10.4857 4.22271 9.92675 3.20736 9.07317 2.47304C8.21959 1.73872 7.12851 1.33457 5.99967 1.33457C4.87082 1.33457 3.77974 1.73872 2.92616 2.47304C2.07258 3.20736 1.51362 4.22271 1.35159 5.33322H0Z" fill="white"/>
</svg>
