<svg width="28" height="20" viewBox="0 0 28 20" fill="none" xmlns="http://www.w3.org/2000/svg">
<path d="M26.8 8H1.2C0.0959999 8 0 8.894 0 10C0 11.106 0.0959999 12 1.2 12H26.8C27.904 12 28 11.106 28 10C28 8.894 27.904 8 26.8 8ZM26.8 16H1.2C0.0959999 16 0 16.894 0 18C0 19.106 0.0959999 20 1.2 20H26.8C27.904 20 28 19.106 28 18C28 16.894 27.904 16 26.8 16ZM1.2 4H26.8C27.904 4 28 3.106 28 2C28 0.894 27.904 0 26.8 0H1.2C0.0959999 0 0 0.894 0 2C0 3.106 0.0959999 4 1.2 4Z" fill="#545454"/>
</svg>
